{
  "project_info": {
    "project_number": "423850152083",
    "firebase_url": "https://database-1a5ff.firebaseio.com",
    "project_id": "database-1a5ff",
    "storage_bucket": "database-1a5ff.appspot.com"
  },
  "client": [
    {
      "client_info": {
        "mobilesdk_app_id": "1:423850152083:android:83df89cd945e62e618fd66",
        "android_client_info": {
          "package_name": "com.yolo.airemaslimpio"
        }
      },
      "oauth_client": [
        {
          "client_id": "423850152083-uj3vf7k4u501fickpri9iqn6srkt7gse.apps.googleusercontent.com",
          "client_type": 1,
          "android_info": {
            "package_name": "com.yolo.airemaslimpio",
            "certificate_hash": "d97ec5622a550e3a21f740a77027f9f455f2ca24"
          }
        },
        {
          "client_id": "423850152083-vrh3bnhagmtji9953t4c237bbs8qucq6.apps.googleusercontent.com",
          "client_type": 3
        }
      ],
      "api_key": [
        {
          "current_key": "AIzaSyBUJZetzB8Cju57B2_H5UyISSWqJjDX0zQ"
        }
      ],
      "services": {
        "appinvite_service": {
          "other_platform_oauth_client": [
            {
              "client_id": "423850152083-vrh3bnhagmtji9953t4c237bbs8qucq6.apps.googleusercontent.com",
              "client_type": 3
            },
            {
              "client_id": "423850152083-advh8faghlv6j32b1cnr866rdingigqa.apps.googleusercontent.com",
              "client_type": 2,
              "ios_info": {
                "bundle_id": "com.yolo.airemaslimpio"
              }
            }
          ]
        }
      }
    }
  ],
  "configuration_version": "1"
}